{
    "lists": [
        {
            "name": "todo",
            "items": [
                {
                    "text": "Øl",
                    "checked": false
                },
                {
                    "text": "Pizza",
                    "checked": false
                }
            ]
        }
    ]
}